Practical 4 – My Quarto Site
…
Using GitHub PAT from the git credential store.
Skipping install of 'UtilsDataRSV' from a github remote, the SHA1 (e62db27d) has not changed since last install.
  Use `force = TRUE` to force installation

Question 1

# load nycflights13  flight data
data(flights, package = "nycflights13") 
flights <- as_tibble(flights)
flights

# A tibble: 336,776 × 19
    year month   day dep_time sched_dep_time dep_delay arr_time sched_arr_time
   <int> <int> <int>    <int>          <int>     <dbl>    <int>          <int>
 1  2013     1     1      517            515         2      830            819
 2  2013     1     1      533            529         4      850            830
 3  2013     1     1      542            540         2      923            850
 4  2013     1     1      544            545        -1     1004           1022
 5  2013     1     1      554            600        -6      812            837
 6  2013     1     1      554            558        -4      740            728
 7  2013     1     1      555            600        -5      913            854
 8  2013     1     1      557            600        -3      709            723
 9  2013     1     1      557            600        -3      838            846
10  2013     1     1      558            600        -2      753            745
# ℹ 336,766 more rows
# ℹ 11 more variables: arr_delay <dbl>, carrier <chr>, flight <int>,
#   tailnum <chr>, origin <chr>, dest <chr>, air_time <dbl>, distance <dbl>,
#   hour <dbl>, minute <dbl>, time_hour <dttm>

Question 2

# Filter flights by month = 1 (January)
 flights_jan <- flights |> 
   filter(month == 1) |> 
   select(carrier,distance)
flights_jan

# A tibble: 27,004 × 2
   carrier distance
   <chr>      <dbl>
 1 UA          1400
 2 UA          1416
 3 AA          1089
 4 B6          1576
 5 DL           762
 6 UA           719
 7 B6          1065
 8 EV           229
 9 B6           944
10 AA           733
# ℹ 26,994 more rows
…
Question 3

# Filtering the January Flights to see all flights from the two carriers of interest
flights_jan |> 
  filter(carrier == "OO")

# A tibble: 1 × 2
  carrier distance
  <chr>      <dbl>
1 OO           733

flights_jan |> 
  filter(carrier == "F9")

# A tibble: 59 × 2
   carrier distance
   <chr>      <dbl>
 1 F9          1620
 2 F9          1620
 3 F9          1620
 4 F9          1620
 5 F9          1620
 6 F9          1620
 7 F9          1620
 8 F9          1620
 9 F9          1620
10 F9          1620
# ℹ 49 more rows
…
# A tibble: 1 × 1
  distance
     <dbl>
1      733

distance.F9

# A tibble: 59 × 1
   distance
      <dbl>
 1     1620
 2     1620
 3     1620
 4     1620
 5     1620
 6     1620
 7     1620
 8     1620
 9     1620
10     1620
# ℹ 49 more rows
…
Carrier “00” only has one distance (or row), and so cannot have a standard deviation, hence the standard deviation is “na”.

Carrier “F9” has many distances but they are all equal, hence standard deviation is equal to 0.

Question 4

# Flitering Flights for relevant columns
flights_dep_delay <- flights |> 
  select(month,dep_delay,carrier)
flights_dep_delay

# A tibble: 336,776 × 3
   month dep_delay carrier
   <int>     <dbl> <chr>  
 1     1         2 UA     
 2     1         4 UA     
 3     1         2 AA     
 4     1        -1 B6     
 5     1        -6 DL     
 6     1        -4 UA     
 7     1        -5 B6     
 8     1        -3 EV     
 9     1        -3 B6     
10     1        -2 AA     
# ℹ 336,766 more rows

# Averages per carrier per month
flights_dep_delay_averages <- flights_dep_delay |> 
  group_by(month,carrier) |> 
  summarise(avg_dep_delay = mean(dep_delay,na.rm = TRUE))

`summarise()` has grouped output by 'month'. You can override using the
`.groups` argument.

flights_dep_delay_averages

# A tibble: 185 × 3
# Groups:   month [12]
   month carrier avg_dep_delay
   <int> <chr>           <dbl>
 1     1 9E              16.9 
 2     1 AA               6.93
 3     1 AS               7.35
 4     1 B6               9.49
 5     1 DL               3.85
 6     1 EV              24.2 
 7     1 F9              10   
 8     1 FL               1.97
 9     1 HA              54.4 
10     1 MQ               6.49
# ℹ 175 more rows
…
6.1

# Identify unique combinations or origin, dest, and carrier
flights_routes <- flights |> 
  select(origin,dest,carrier) |>
  distinct() |> 
  group_by(origin,dest)
flights_routes

# A tibble: 439 × 3
# Groups:   origin, dest [224]
   origin dest  carrier
   <chr>  <chr> <chr>  
 1 EWR    IAH   UA     
 2 LGA    IAH   UA     
 3 JFK    MIA   AA     
 4 JFK    BQN   B6     
 5 LGA    ATL   DL     
 6 EWR    ORD   UA     
 7 EWR    FLL   B6     
 8 LGA    IAD   EV     
 9 JFK    MCO   B6     
10 LGA    ORD   AA     
# ℹ 429 more rows

# Isolate routes that are shared by multiple airlines
flight_routes_multiple_airlines <- flights_routes |> 
  count(origin,dest,name = "number_of_airlines") |> 
  filter(number_of_airlines>1)
flight_routes_multiple_airlines

# A tibble: 128 × 3
# Groups:   origin, dest [128]
   origin dest  number_of_airlines
   <chr>  <chr>              <int>
 1 EWR    ATL                    4
 2 EWR    AUS                    2
 3 EWR    BDL                    2
 4 EWR    BNA                    2
 5 EWR    BOS                    3
 6 EWR    BWI                    2
 7 EWR    CHS                    2
 8 EWR    CLE                    2
 9 EWR    CLT                    3
10 EWR    CVG                    2
# ℹ 118 more rows

6.2

# Identfiy all flights along the shared routes from Question 6.1
flights_multiple_airlines <- flights |>
  select(origin,dest,carrier,arr_delay) |>
  group_by(origin,dest,carrier) |> 
  semi_join(flight_routes_multiple_airlines,join_by(origin == origin, dest == dest))
flights_multiple_airlines

# A tibble: 276,735 × 4
# Groups:   origin, dest, carrier [343]
   origin dest  carrier arr_delay
   <chr>  <chr> <chr>       <dbl>
 1 JFK    MIA   AA             33
 2 LGA    ATL   DL            -25
 3 EWR    ORD   UA             12
 4 EWR    FLL   B6             19
 5 LGA    IAD   EV            -14
 6 JFK    MCO   B6             -8
 7 LGA    ORD   AA              8
 8 JFK    TPA   B6             -3
 9 JFK    LAX   UA              7
10 EWR    SFO   UA            -14
# ℹ 276,725 more rows

# Average flight delay for each airline along the shared routes
average_delay <- flights_multiple_airlines |> 
  summarise(mean_delay = mean(arr_delay,na.rm=TRUE))

`summarise()` has grouped output by 'origin', 'dest'. You can override using
the `.groups` argument.

average_delay

# A tibble: 343 × 4
# Groups:   origin, dest [128]
   origin dest  carrier mean_delay
   <chr>  <chr> <chr>        <dbl>
 1 EWR    ATL   9E           -6.25
 2 EWR    ATL   DL           10.00
 3 EWR    ATL   EV           19.5 
 4 EWR    ATL   UA           10.5 
 5 EWR    AUS   UA            4.28
 6 EWR    AUS   WN          -11.2 
 7 EWR    BDL   EV            6.78
 8 EWR    BDL   UA           22.6 
 9 EWR    BNA   EV           17.7 
10 EWR    BNA   WN           -2.13
# ℹ 333 more rows

# Added the names of each airline based on the "carrier" value from "airlines" data
average_delay_with_airline_name <- average_delay |> 
  left_join(airlines, by = join_by(carrier))
average_delay_with_airline_name

# A tibble: 343 × 5
# Groups:   origin, dest [128]
   origin dest  carrier mean_delay name                    
   <chr>  <chr> <chr>        <dbl> <chr>                   
 1 EWR    ATL   9E           -6.25 Endeavor Air Inc.       
 2 EWR    ATL   DL           10.00 Delta Air Lines Inc.    
 3 EWR    ATL   EV           19.5  ExpressJet Airlines Inc.
 4 EWR    ATL   UA           10.5  United Air Lines Inc.   
 5 EWR    AUS   UA            4.28 United Air Lines Inc.   
 6 EWR    AUS   WN          -11.2  Southwest Airlines Co.  
 7 EWR    BDL   EV            6.78 ExpressJet Airlines Inc.
 8 EWR    BDL   UA           22.6  United Air Lines Inc.   
 9 EWR    BNA   EV           17.7  ExpressJet Airlines Inc.
10 EWR    BNA   WN           -2.13 Southwest Airlines Co.  
# ℹ 333 more rows

6.3

# The airline's with the worst average delay for each route
max_delay <- average_delay_with_airline_name |> 
  group_by(origin,dest) |> 
  slice_max(mean_delay)
max_delay

# A tibble: 128 × 5
# Groups:   origin, dest [128]
   origin dest  carrier mean_delay name                    
   <chr>  <chr> <chr>        <dbl> <chr>                   
 1 EWR    ATL   EV           19.5  ExpressJet Airlines Inc.
 2 EWR    AUS   UA            4.28 United Air Lines Inc.   
 3 EWR    BDL   UA           22.6  United Air Lines Inc.   
 4 EWR    BNA   EV           17.7  ExpressJet Airlines Inc.
 5 EWR    BOS   B6            6.87 JetBlue Airways         
 6 EWR    BWI   EV           20.1  ExpressJet Airlines Inc.
 7 EWR    CHS   EV           16.2  ExpressJet Airlines Inc.
 8 EWR    CLE   UA            5.97 United Air Lines Inc.   
 9 EWR    CLT   EV           20.5  ExpressJet Airlines Inc.
10 EWR    CVG   EV           21.2  ExpressJet Airlines Inc.
# ℹ 118 more rows

# The airline's with the best average delay for each route
min_delay <- average_delay_with_airline_name |> 
  group_by(origin,dest) |> 
  slice_min(mean_delay)
min_delay

# A tibble: 128 × 5
# Groups:   origin, dest [128]
   origin dest  carrier mean_delay name                    
   <chr>  <chr> <chr>        <dbl> <chr>                   
 1 EWR    ATL   9E          -6.25  Endeavor Air Inc.       
 2 EWR    AUS   WN         -11.2   Southwest Airlines Co.  
 3 EWR    BDL   EV           6.78  ExpressJet Airlines Inc.
 4 EWR    BNA   WN          -2.13  Southwest Airlines Co.  
 5 EWR    BOS   EV          -4.01  ExpressJet Airlines Inc.
 6 EWR    BWI   WN           5.95  Southwest Airlines Co.  
 7 EWR    CHS   UA         -14     United Air Lines Inc.   
 8 EWR    CLE   EV          -3.71  ExpressJet Airlines Inc.
 9 EWR    CLT   US           0.920 US Airways Inc.         
10 EWR    CVG   9E           1.40  Endeavor Air Inc.       
# ℹ 118 more rows

# Combining the two tables of the best and worst airlines for each route
max_and_min_delays <- max_delay |> 
  left_join(min_delay,by = join_by(origin, dest)) |> 
  rename(max_carrier = carrier.x,
         max_mean_delay = mean_delay.x,
         max_name=name.x,
         min_carrier = carrier.y,
         min_mean_delay = mean_delay.y,
         min_name = name.y)
max_and_min_delays

# A tibble: 128 × 8
# Groups:   origin, dest [128]
   origin dest  max_carrier max_mean_delay max_name   min_carrier min_mean_delay
   <chr>  <chr> <chr>                <dbl> <chr>      <chr>                <dbl>
 1 EWR    ATL   EV                   19.5  ExpressJe… 9E                  -6.25 
 2 EWR    AUS   UA                    4.28 United Ai… WN                 -11.2  
 3 EWR    BDL   UA                   22.6  United Ai… EV                   6.78 
 4 EWR    BNA   EV                   17.7  ExpressJe… WN                  -2.13 
 5 EWR    BOS   B6                    6.87 JetBlue A… EV                  -4.01 
 6 EWR    BWI   EV                   20.1  ExpressJe… WN                   5.95 
 7 EWR    CHS   EV                   16.2  ExpressJe… UA                 -14    
 8 EWR    CLE   UA                    5.97 United Ai… EV                  -3.71 
 9 EWR    CLT   EV                   20.5  ExpressJe… US                   0.920
10 EWR    CVG   EV                   21.2  ExpressJe… 9E                   1.40 
# ℹ 118 more rows
# ℹ 1 more variable: min_name <chr>

6.4

# Added "difference" column to measure difference between the best and worst airlines per route
differences <- max_and_min_delays |> 
  mutate(difference = max_mean_delay - min_mean_delay) |> 
  ungroup()
differences

# A tibble: 128 × 9
   origin dest  max_carrier max_mean_delay max_name   min_carrier min_mean_delay
   <chr>  <chr> <chr>                <dbl> <chr>      <chr>                <dbl>
 1 EWR    ATL   EV                   19.5  ExpressJe… 9E                  -6.25 
 2 EWR    AUS   UA                    4.28 United Ai… WN                 -11.2  
 3 EWR    BDL   UA                   22.6  United Ai… EV                   6.78 
 4 EWR    BNA   EV                   17.7  ExpressJe… WN                  -2.13 
 5 EWR    BOS   B6                    6.87 JetBlue A… EV                  -4.01 
 6 EWR    BWI   EV                   20.1  ExpressJe… WN                   5.95 
 7 EWR    CHS   EV                   16.2  ExpressJe… UA                 -14    
 8 EWR    CLE   UA                    5.97 United Ai… EV                  -3.71 
 9 EWR    CLT   EV                   20.5  ExpressJe… US                   0.920
10 EWR    CVG   EV                   21.2  ExpressJe… 9E                   1.40 
# ℹ 118 more rows
# ℹ 2 more variables: min_name <chr>, difference <dbl>
…
# A tibble: 1 × 19
   year month   day dep_time sched_dep_time dep_delay arr_time sched_arr_time
  <int> <int> <int>    <int>          <int>     <dbl>    <int>          <int>
1  2013    10     7      904            700       124     1133            925
# ℹ 11 more variables: arr_delay <dbl>, carrier <chr>, flight <int>,
#   tailnum <chr>, origin <chr>, dest <chr>, air_time <dbl>, distance <dbl>,
#   hour <dbl>, minute <dbl>, time_hour <dttm>

# Filtering for only the best airline's flights along the route with the biggest difference
min_diff_flights <- flights |> 
  filter(origin == "JFK", dest == "ATL", carrier == "9E")
min_diff_flights

# A tibble: 55 × 19
    year month   day dep_time sched_dep_time dep_delay arr_time sched_arr_time
   <int> <int> <int>    <int>          <int>     <dbl>    <int>          <int>
 1  2013     1     4      615            615         0      851            855
 2  2013     1     7      614            615        -1      812            855
 3  2013     1     8      612            615        -3      901            855
 4  2013     1     9      615            615         0       NA            855
 5  2013     1    10      613            615        -2      840            855
 6  2013     1    11      629            615        14      914            855
 7  2013     1    12      613            615        -2      839            855
 8  2013     1    13      612            615        -3      853            855
 9  2013     1    14      649            615        34      950            855
10  2013     1    15      612            615        -3      927            855
# ℹ 45 more rows
# ℹ 11 more variables: arr_delay <dbl>, carrier <chr>, flight <int>,
#   tailnum <chr>, origin <chr>, dest <chr>, air_time <dbl>, distance <dbl>,
#   hour <dbl>, minute <dbl>, time_hour <dttm>
…
# Overview of the data
data

# A tibble: 50 × 15
   id      age gender height weight blood_type disease_status cholesterol
   <chr> <int> <chr>   <dbl>  <dbl> <chr>      <chr>                <dbl>
 1 id_1     50 male     174.   69.4 O          diseased               228
 2 id_2     34 male     198.   62.3 A          healthy                223
 3 id_3     70 male     174.   55.6 O          healthy                213
 4 id_4     33 female   194.   69.5 O          healthy                198
 5 id_5     22 female    NA    78.6 B          healthy                166
 6 id_6     61 male     180.   60.8 AB         healthy                151
 7 id_7     69 female   170.   72.2 O          diseased               195
 8 id_8     73 male     157.   60.9 O          healthy                199
 9 id_9     62 male     197.   75.1 O          diseased               189
10 id_10    56 female   165.   67.7 AB         Healthy                196
# ℹ 40 more rows
# ℹ 7 more variables: glucose <dbl>, smoker <chr>, exercise <chr>,
#   income <int>, education <chr>, region <chr>, marital_status <chr>
…
The column “gender” has one entry has a typo, as it says “femal” instead of “female”. Additionally, the “disease_status” column has one entry that has “Healthy” with a capital “H” whilst the other entries are “healthy” with a lowercase “h”.

Most columns that contain text are all lowercase, except for columns “region:” which all entries start with a capital letter, like “North” for example, and the “education” column, which has capitals in “PhD” entries.

The “id” column values all include the text “id_” which results in the column being formatted as “character” and not as “integer”. If you were to sort the data by the ID column the rows are not in the order you’d expect. As illustrated below, you can see the first row is “id_1” but then it jumps to “id_10” instead of “id_2”.

# Sorting data by the "id" column
class(data$id)

[1] "character"

data |> arrange(id)

# A tibble: 50 × 15
   id      age gender height weight blood_type disease_status cholesterol
   <chr> <int> <chr>   <dbl>  <dbl> <chr>      <chr>                <dbl>
 1 id_1     50 male     174.   69.4 O          diseased               228
 2 id_10    56 female   165.   67.7 AB         Healthy                196
 3 id_11    71 female   153    82.5 A          diseased               221
 4 id_12    33 male     197.   68.7 O          healthy                156
 5 id_13    73 male     186    67.8 O          diseased               185
 6 id_14    44 female   157.   76.7 O          healthy                230
 7 id_15    45 male     178.   87   B          diseased               234
 8 id_16    46 male     198.   61.1 A          healthy                174
 9 id_17    24 male     179.   70.6 B          healthy                185
10 id_18    70 male     170.   63.3 AB         healthy                236
# ℹ 40 more rows
# ℹ 7 more variables: glucose <dbl>, smoker <chr>, exercise <chr>,
#   income <int>, education <chr>, region <chr>, marital_status <chr>
